{
  "project_info": {
    "project_number": "642640179986",
    "firebase_url": "https://fcmandchatdemo.firebaseio.com",
    "project_id": "fcmandchatdemo",
    "storage_bucket": "fcmandchatdemo.appspot.com"
  },
  "client": [
    {
      "client_info": {
        "mobilesdk_app_id": "1:642640179986:android:b50cb74247ef93e3d7b9cb",
        "android_client_info": {
          "package_name": "com.junaid.chatdemo"
        }
      },
      "oauth_client": [
        {
          "client_id": "642640179986-s1n47m1722cqbem8bdmt7ikuqfk9s5jp.apps.googleusercontent.com",
          "client_type": 3
        }
      ],
      "api_key": [
        {
          "current_key": "AIzaSyBZAdxHJmtsEC5izXL5-74lZyF3Bd9PTKQ"
        }
      ],
      "services": {
        "appinvite_service": {
          "other_platform_oauth_client": [
            {
              "client_id": "642640179986-s1n47m1722cqbem8bdmt7ikuqfk9s5jp.apps.googleusercontent.com",
              "client_type": 3
            }
          ]
        }
      }
    }
  ],
  "configuration_version": "1"
}